Meeting
…
Up

# A tibble: 3 x 5
  gene   Down       Up UpOrDown Mixed
* <fct> <dbl>    <dbl>    <dbl> <dbl>
1 BACH2 0.994 0.00650     0.013 0.026
2 HIF1A 1     0.000500    0.001 0.065
3 RB1   0.965 0.0355      0.071 0.001

[1] 3

Mixed

# A tibble: 24 x 5
   gene     Down      Up UpOrDown Mixed
 * <fct>   <dbl>   <dbl>    <dbl> <dbl>
 1 AHR    0.922  0.0785     0.157 0.039
 2 ATR    0.940  0.0605     0.121 0.003
 3 BACH2  0.994  0.00650    0.013 0.026
 4 BPTF   0.635  0.366      0.731 0.049
 5 BRD4   0.0135 0.987      0.027 0.039
 6 CREBBP 0.898  0.103      0.205 0.001
 7 CUX1   0.467  0.534      0.933 0.002
 8 EP300  0.865  0.135      0.27  0.001
 9 FN1    0.292  0.709      0.583 0.023
10 HELZ2  0.512  0.488      0.976 0.006
# ... with 14 more rows
…
